Chapter 4 Extracting information from data | Spatio-Temporal Methods in Environmental Epidemiology with R. Second Edition
…
In this case, we can think of what we want to do as the
data by and then averaging the values
within each group. Note that there are missing values in
as in some locations only is measured, and vice-versa. We
use to exclude missing values when
calculating the mean.

WHO_GM_Database %>% 
  group_by(CountryName) %>%
summarize(mn = mean(PM25, na.rm=TRUE))

## # A tibble: 127 × 2
##    CountryName    mn
##    <chr>       <dbl>
##  1 Afghanistan 91.3 
##  2 Albania     22.3 
##  3 Algeria     21.5 
##  4 Andorra     11.0 
##  5 Argentina   10.2 
##  6 Australia    8.11
##  7 Austria     14.2 
##  8 Bahamas      4.16
##  9 Bahrain     55.4 
## 10 Bangladesh  76.8 
## # ℹ 117 more rows

Summarize

The summarize() function applies a function to a dataframe or subsets of a
data frame. For example, we can produce a table of estimates for the mean and variance of both PM25 lengths and PM10, within each CountryName.

WHO_GM_Database %>% 
  group_by(CountryName) %>%
summarize(MeanPM25 = mean(PM25, na.rm=TRUE), MeanPM10 = mean(PM10, na.rm=TRUE), VarPM25 = var(PM25, na.rm=TRUE), VarPM10 = var(PM10, na.rm=TRUE))

## # A tibble: 127 × 5
##    CountryName MeanPM25 MeanPM10  VarPM25 VarPM10
##    <chr>          <dbl>    <dbl>    <dbl>   <dbl>
##  1 Afghanistan    91.3    297    691.     2738   
##  2 Albania        22.3     36.4   77.9     655.  
##  3 Algeria        21.5    NaN     NA        NA   
##  4 Andorra        11.0     19.2    0.276     1.09
##  5 Argentina      10.2     27.4    0.0103    1.45
##  6 Australia       8.11    17.7   54.2      58.4 
##  7 Austria        14.2     20.4   11.2      25.8 
##  8 Bahamas         4.16     4.65   1.04      1.19
##  9 Bahrain        55.4    176.   103.     4844.  
## 10 Bangladesh     76.8    142.   690.     1784.  
## # ℹ 117 more rows
…
